<?xml version="1.0" encoding="UTF-8" standalone="no"?>
<!-- Creator: CorelDRAW X8 -->

<svg
   xmlns:dc="http://purl.org/dc/elements/1.1/"
   xmlns:cc="http://creativecommons.org/ns#"
   xmlns:rdf="http://www.w3.org/1999/02/22-rdf-syntax-ns#"
   xmlns:svg="http://www.w3.org/2000/svg"
   xmlns="http://www.w3.org/2000/svg"
   xmlns:sodipodi="http://sodipodi.sourceforge.net/DTD/sodipodi-0.dtd"
   xmlns:inkscape="http://www.inkscape.org/namespaces/inkscape"
   xml:space="preserve"
   width="79.034431mm"
   height="18.408703mm"
   version="1.1"
   style="clip-rule:evenodd;fill-rule:evenodd;image-rendering:optimizeQuality;shape-rendering:geometricPrecision;text-rendering:geometricPrecision"
   viewBox="0 0 7903.6735 1841.0002"
   id="svg2"
   inkscape:version="0.91 r13725"
   sodipodi:docname="logo_white.svg"><metadata
     id="metadata33"><rdf:RDF><cc:Work
         rdf:about=""><dc:format>image/svg+xml</dc:format><dc:type
           rdf:resource="http://purl.org/dc/dcmitype/StillImage" /><dc:title></dc:title></cc:Work></rdf:RDF></metadata><sodipodi:namedview
     pagecolor="#ffffff"
     bordercolor="#666666"
     borderopacity="1"
     objecttolerance="10"
     gridtolerance="10"
     guidetolerance="10"
     inkscape:pageopacity="0"
     inkscape:pageshadow="2"
     inkscape:window-width="1920"
     inkscape:window-height="1017"
     id="namedview31"
     showgrid="false"
     inkscape:zoom="1.4925649"
     inkscape:cx="-54.274788"
     inkscape:cy="34.408253"
     inkscape:window-x="0"
     inkscape:window-y="30"
     inkscape:window-maximized="1"
     inkscape:current-layer="svg2"
     fit-margin-top="0"
     fit-margin-left="0"
     fit-margin-right="0"
     fit-margin-bottom="0" /><defs
     id="defs4"><style
       type="text/css"
       id="style6"><![CDATA[
    .fil5 {fill:#00B3FF}
    .fil4 {fill:#00B3FF}
    .fil2 {fill:#09507A}
    .fil1 {fill:#09507A}
    .fil3 {fill:#424242}
    .fil0 {fill:#424242;fill-rule:nonzero}
   ]]></style></defs><g
     transform="translate(-0.16365357,0)"
     id="Слой_x0020_1"
     style="clip-rule:evenodd;fill:#ffffff;fill-rule:evenodd;image-rendering:optimizeQuality;shape-rendering:geometricPrecision;text-rendering:geometricPrecision"><metadata
       id="CorelCorpID_0Corel-Layer" /><g
       id="_1528564307072"
       style="fill:#ffffff"><path
         inkscape:connector-curvature="0"
         class="fil0"
         d="m 152,1725 c 15,0 28,-4 40,-12 11,-8 17,-19 19,-31 l 40,0 c -1,13 -6,25 -15,36 -9,12 -21,21 -36,28 -15,7 -31,10 -48,10 -34,0 -61,-10 -81,-30 -20,-20 -30,-48 -30,-83 l 0,-6 c 0,-22 4,-41 13,-57 9,-17 22,-30 39,-39 16,-10 36,-14 59,-14 28,0 51,7 69,22 19,15 29,34 30,58 l -40,0 c -2,-15 -8,-26 -19,-36 -11,-9 -24,-13 -40,-13 -22,0 -39,7 -51,20 -11,14 -17,34 -17,60 l 0,7 c 0,26 5,46 17,59 12,14 29,21 51,21 z m 398,-164 -84,0 0,191 -42,0 0,-191 -82,0 0,-30 208,0 0,30 z m 191,135 58,-165 46,0 -100,255 c -16,37 -40,55 -74,55 l -8,-1 -16,-2 0,-31 11,1 c 15,0 26,-3 34,-8 8,-5 15,-15 20,-28 l 9,-23 -88,-218 46,0 62,165 z m 193,25 15,-16 c 16,-19 26,-48 28,-86 l 4,-88 160,0 0,190 32,0 0,96 -42,0 0,-65 -174,0 0,65 -43,0 1,-96 19,0 z m 50,0 115,0 0,-155 -77,0 -2,53 c -3,43 -15,77 -36,102 z m 460,-190 42,0 0,221 -42,0 0,-161 -115,161 -43,0 0,-221 43,0 0,161 115,-161 z m 367,0 0,221 -43,0 0,-86 -64,0 -59,86 -46,0 63,-92 c -16,-5 -28,-13 -37,-24 -8,-11 -13,-24 -13,-38 0,-20 9,-36 26,-49 17,-12 40,-18 68,-18 l 105,0 z m -156,67 c 0,11 4,20 13,26 8,7 19,10 32,11 l 68,0 0,-74 -61,0 c -16,0 -28,4 -38,11 -9,7 -14,15 -14,26 z m 634,-67 42,0 0,221 -42,0 0,-161 -115,161 -42,0 0,-221 42,0 0,161 115,-161 z m 380,221 -42,0 0,-94 -115,0 0,94 -42,0 0,-221 42,0 0,96 115,0 0,-96 42,0 0,221 z m 320,-191 -84,0 0,191 -43,0 0,-191 -81,0 0,-30 208,0 0,30 z m 195,195 c -34,0 -61,-10 -82,-30 -21,-19 -32,-46 -32,-79 l 0,-7 c 0,-21 5,-41 14,-58 10,-17 23,-31 40,-41 17,-9 35,-14 55,-14 32,0 57,9 75,28 18,19 27,46 27,81 l 0,16 -168,0 c 0,22 7,40 21,53 14,13 31,20 52,20 15,0 28,-3 39,-8 10,-6 19,-13 27,-22 l 26,18 c -21,29 -52,43 -94,43 z m -5,-198 c -17,0 -32,5 -43,16 -12,12 -19,27 -22,47 l 125,0 0,-3 c -2,-19 -7,-34 -18,-44 -10,-11 -24,-16 -42,-16 z m 428,86 c 0,33 -9,60 -26,81 -18,21 -41,31 -71,31 -30,0 -54,-9 -71,-26 l 0,107 -43,0 0,-306 39,0 2,24 c 18,-19 42,-28 73,-28 30,0 53,10 71,30 17,20 26,48 26,83 l 0,4 z m -43,-5 c 0,-24 -6,-44 -18,-59 -12,-14 -28,-21 -49,-21 -26,0 -45,10 -58,30 l 0,106 c 13,20 32,30 58,30 21,0 37,-7 49,-22 12,-14 18,-35 18,-64 z m 266,117 c -34,0 -61,-10 -82,-30 -21,-19 -32,-46 -32,-79 l 0,-7 c 0,-21 5,-41 14,-58 10,-17 23,-31 40,-41 17,-9 35,-14 55,-14 32,0 57,9 75,28 18,19 27,46 27,81 l 0,16 -168,0 c 0,22 7,40 21,53 14,13 31,20 53,20 15,0 27,-3 38,-8 10,-6 19,-13 27,-22 l 26,18 c -21,29 -52,43 -94,43 z m -5,-198 c -17,0 -32,5 -43,16 -12,12 -19,27 -22,47 l 125,0 0,-3 c -1,-19 -7,-34 -18,-44 -10,-11 -24,-16 -42,-16 z m 421,194 -43,0 0,-94 -114,0 0,94 -43,0 0,-221 43,0 0,96 114,0 0,-96 43,0 0,221 z m 315,-191 -84,0 0,191 -43,0 0,-191 -81,0 0,-30 208,0 0,30 z m 196,80 -113,0 0,-31 113,0 0,31 z m 292,-80 -84,0 0,191 -42,0 0,-191 -82,0 0,-30 208,0 0,30 z m 195,195 c -33,0 -61,-10 -82,-30 -21,-19 -32,-46 -32,-79 l 0,-7 c 0,-21 5,-41 14,-58 10,-17 23,-31 40,-41 17,-9 35,-14 55,-14 33,0 58,9 76,28 18,19 27,46 27,81 l 0,16 -169,0 c 1,22 8,40 21,53 14,13 32,20 53,20 15,0 28,-3 38,-8 10,-6 20,-13 27,-22 l 26,18 c -20,29 -52,43 -94,43 z m -5,-198 c -17,0 -31,5 -43,16 -12,12 -19,27 -22,47 l 125,0 0,-3 c -1,-19 -7,-34 -17,-44 -11,-11 -25,-16 -43,-16 z m 301,53 56,-80 49,0 -81,109 84,112 -49,0 -58,-83 -57,83 -50,0 84,-112 -81,-109 49,0 54,80 z m 420,141 -43,0 0,-94 -114,0 0,94 -43,0 0,-221 43,0 0,96 114,0 0,-96 43,0 0,221 z m 123,-113 c 0,-21 5,-41 14,-58 10,-18 23,-31 40,-40 17,-10 37,-14 59,-14 34,0 61,10 82,31 21,21 31,49 31,83 l 0,3 c 0,21 -4,41 -13,58 -10,17 -23,30 -40,40 -17,9 -37,14 -60,14 -34,0 -61,-10 -82,-31 -21,-21 -31,-49 -31,-83 l 0,-3 z m 43,5 c 0,24 6,44 19,59 13,15 30,22 51,22 22,0 39,-8 52,-23 12,-15 19,-36 19,-63 0,-24 -7,-44 -20,-59 -13,-15 -30,-22 -51,-22 -21,0 -38,7 -51,22 -13,15 -19,36 -19,64 z m 503,-113 0,221 -42,0 0,-190 -85,0 -5,83 c -3,38 -10,65 -22,81 -11,17 -30,25 -55,26 l -17,0 0,-34 12,-1 c 14,-1 24,-8 30,-21 6,-13 10,-36 11,-71 l 5,-94 168,0 z m 123,108 c 0,-21 5,-41 15,-58 9,-18 23,-31 40,-40 17,-10 36,-14 58,-14 34,0 62,10 83,31 21,21 31,49 31,83 l 0,3 c 0,21 -5,41 -14,58 -9,17 -22,30 -40,40 -17,9 -37,14 -59,14 -34,0 -61,-10 -82,-31 -21,-21 -32,-49 -32,-83 l 0,-3 z m 43,5 c 0,24 7,44 19,59 13,15 30,22 52,22 21,0 39,-8 51,-23 13,-15 19,-36 19,-63 0,-24 -6,-44 -19,-59 -13,-15 -30,-22 -52,-22 -21,0 -38,7 -51,22 -12,15 -19,36 -19,64 z m 464,-82 -115,0 0,190 -42,0 0,-221 157,0 0,31 z m 264,-31 43,0 0,221 -43,0 0,-161 -115,161 -42,0 0,-221 42,0 0,161 115,-161 z m 338,0 43,0 0,221 -43,0 0,-161 -115,161 -42,0 0,-221 42,0 0,161 115,-161 z m 12,-81 c 0,16 -7,30 -19,40 -13,10 -30,15 -50,15 -21,0 -37,-5 -50,-15 -13,-10 -19,-24 -19,-40 l 35,0 c 0,9 3,17 8,22 6,5 15,8 26,8 11,0 19,-2 25,-8 6,-5 9,-13 9,-22 l 35,0 z"
         id="path11"
         style="fill:#ffffff;fill-rule:nonzero" /><path
         inkscape:connector-curvature="0"
         class="fil1"
         d="m 7643,199 0,233 254,0 0,160 -254,0 0,367 c 0,49 10,85 31,105 21,21 56,32 104,32 41,0 80,-5 119,-15 l 0,165 c -48,10 -99,15 -152,15 -111,0 -191,-23 -239,-69 -49,-45 -73,-120 -73,-225 l 0,-343 c 0,-17 -1,-27 -2,-32 -2,-4 -8,-7 -19,-10 l -103,-28 20,-122 104,0 0,-233 210,0 z"
         id="path13"
         style="fill:#ffffff" /><path
         inkscape:connector-curvature="0"
         class="fil1"
         d="m 6700,123 c 51,-49 134,-73 250,-73 13,0 27,0 43,2 15,1 30,2 45,4 15,2 29,4 41,7 13,2 24,6 33,9 l -32,164 c -12,-4 -28,-7 -48,-11 -20,-4 -39,-6 -58,-6 -49,0 -85,10 -107,32 -22,21 -33,56 -33,104 l 0,76 221,0 0,164 -221,0 0,664 -210,0 0,-632 c 0,-17 0,-27 -2,-32 -2,-4 -8,-8 -19,-10 l -102,-29 19,-125 104,0 0,-67 c 0,-111 26,-192 76,-241 z"
         id="path15"
         style="fill:#ffffff" /><path
         inkscape:connector-curvature="0"
         class="fil1"
         d="m 5677,436 c 53,-16 117,-24 192,-24 75,0 139,8 192,24 54,16 98,41 132,75 35,34 60,78 76,132 16,54 24,119 24,194 0,149 -33,257 -100,324 -66,67 -174,100 -324,100 -75,0 -139,-8 -192,-24 -54,-16 -98,-41 -132,-76 -34,-35 -59,-79 -75,-132 -16,-53 -24,-118 -24,-192 0,-75 8,-140 24,-194 16,-54 41,-98 75,-132 34,-34 78,-59 132,-75 z m -16,401 c 0,92 16,158 49,199 32,40 85,60 159,60 75,0 128,-20 161,-60 32,-41 49,-107 49,-199 0,-93 -17,-159 -49,-199 -33,-41 -86,-61 -161,-61 -74,0 -127,20 -159,61 -33,40 -49,106 -49,199 z"
         id="path17"
         style="fill:#ffffff" /><path
         inkscape:connector-curvature="0"
         class="fil2"
         d="m 4882,412 c 52,0 103,4 155,11 51,7 95,17 133,29 l -32,157 c -38,-12 -78,-22 -118,-28 -40,-7 -81,-10 -123,-10 -55,0 -95,7 -119,22 -24,15 -36,37 -36,65 0,26 11,44 34,56 22,11 51,20 85,27 l 110,20 c 40,8 77,20 111,37 34,17 62,41 85,73 23,32 34,76 34,132 0,90 -28,155 -85,196 -57,41 -145,62 -265,62 -110,0 -210,-13 -301,-40 l 0,-163 c 47,14 93,25 141,33 47,8 95,11 143,11 107,0 161,-31 161,-94 0,-26 -12,-45 -34,-57 -23,-13 -51,-22 -85,-29 -34,-8 -71,-14 -111,-21 -40,-7 -76,-18 -111,-35 -34,-16 -62,-40 -85,-72 -22,-31 -33,-75 -33,-131 0,-45 8,-83 26,-115 18,-32 42,-58 73,-78 30,-20 67,-34 109,-44 43,-9 89,-14 138,-14 z"
         id="path19"
         style="fill:#ffffff" /><polygon
         class="fil3"
         points="4105,1262 3895,1261 4071,354 4287,354 "
         id="polygon21"
         style="fill:#ffffff" /><path
         inkscape:connector-curvature="0"
         class="fil2"
         d="m 4332,111 c 0,61 -51,113 -117,113 -66,0 -116,-49 -116,-113 0,-61 50,-111 116,-111 66,0 117,48 117,111 z"
         id="path23"
         style="fill:#ffffff" /><path
         inkscape:connector-curvature="0"
         class="fil4"
         d="m 3246,430 c 107,0 187,26 241,77 53,51 80,136 80,254 l 0,341 c 0,12 1,20 3,24 2,4 9,8 20,13 l 58,23 -20,97 -258,0 c -10,0 -15,-5 -15,-16 l 0,-474 c 0,-61 -12,-104 -37,-131 -25,-26 -66,-39 -125,-39 -41,0 -80,5 -116,16 -36,11 -61,21 -75,30 l 0,614 -211,0 0,-652 c 0,-12 -1,-20 -4,-24 -2,-4 -8,-8 -19,-12 l -58,-23 20,-98 249,0 c 10,0 15,6 15,17 l 0,48 c 36,-30 75,-52 115,-65 41,-13 87,-20 137,-20 z"
         id="path25"
         style="fill:#ffffff" /><path
         inkscape:connector-curvature="0"
         class="fil5"
         d="m 1360,515 c 36,-30 73,-52 111,-65 38,-13 81,-20 130,-20 59,0 110,9 151,28 41,18 72,43 93,75 35,-32 75,-57 119,-75 44,-19 96,-28 157,-28 112,0 193,27 241,80 48,54 73,132 73,236 l 0,356 c 0,12 1,20 3,24 2,4 9,8 20,13 l 58,23 -20,97 -258,0 c -10,0 -15,-5 -15,-16 l 0,-484 c 0,-57 -10,-98 -31,-123 -21,-25 -59,-37 -116,-37 -36,0 -70,5 -102,15 -32,10 -59,22 -83,38 3,5 5,18 7,38 2,19 3,43 3,71 l 0,498 -211,0 0,-500 c 0,-57 -10,-98 -31,-123 -21,-25 -60,-37 -116,-37 -40,0 -75,5 -107,16 -32,11 -55,21 -68,30 l 0,614 -211,0 0,-652 c 0,-12 -1,-20 -4,-24 -2,-4 -8,-8 -19,-12 l -58,-23 20,-98 249,0 c 10,0 15,6 15,17 l 0,48 z"
         id="path27"
         style="fill:#ffffff" /><path
         inkscape:connector-curvature="0"
         class="fil4"
         d="m 230,436 c 54,-16 118,-24 193,-24 75,0 139,8 192,24 53,16 97,41 132,75 35,34 60,78 76,132 16,54 24,119 24,194 0,149 -33,257 -100,324 -66,67 -175,100 -324,100 -75,0 -139,-8 -193,-24 -53,-16 -97,-41 -131,-76 C 65,1126 40,1082 24,1029 8,976 0,911 0,837 0,762 8,697 24,643 40,589 65,545 99,511 c 34,-34 78,-59 131,-75 z m -15,401 c 0,92 16,158 48,199 33,40 86,60 160,60 74,0 128,-20 161,-60 32,-41 48,-107 48,-199 0,-93 -16,-159 -48,-199 -33,-41 -87,-61 -161,-61 -74,0 -127,20 -160,61 -32,40 -48,106 -48,199 z"
         id="path29"
         style="fill:#ffffff" /></g></g></svg>